03 - geoms
…
duke_forest %>%
  select(year_built, decade_built, decade_built_cat)
```

```
## # A tibble: 98 × 3
##    year_built decade_built decade_built_cat
##         <dbl>        <dbl> <ord>           
##  1       1972         1970 1970            
##  2       1969         1960 1960            
##  3       1959         1950 1950            
##  4       1961         1960 1960            
##  5       2020         2020 1990 or after   
##  6       2014         2010 1990 or after   
##  7       1968         1960 1960            
##  8       1973         1970 1970            
##  9       1972         1970 1970            
## 10       1964         1960 1960            
## # … with 88 more rows
```
…
```r
mean_price_year <- duke_forest %>%
  group_by(year_built) %>%
  summarise(
    n = n(),
    mean_price = mean(price),
    sd_price = sd(price)
    )

mean_price_year
```

```
## # A tibble: 44 × 4
##    year_built     n mean_price sd_price
##         <dbl> <int>      <dbl>    <dbl>
##  1       1923     1     285000      NA 
##  2       1934     1     600000      NA 
##  3       1938     1     265000      NA 
##  4       1940     1     105000      NA 
##  5       1941     2     432500   28284.
##  6       1945     2     525000  530330.
##  7       1951     2     567500  258094.
##  8       1952     2     531250  469165.
##  9       1953     2     575000   35355.
## 10       1954     4     600000   33912.
## # … with 34 more rows
```
…
