02 - grammar of graphics
…
.midi[

```r
library(tidyverse)

staff_long <- staff %>%
  pivot_longer(cols = -faculty_type, names_to = "year", 
               values_to = "percentage") %>%
  mutate(percentage = as.numeric(percentage))

staff_long
```

```
## # A tibble: 55 × 3
##    faculty_type              year  percentage
##    <chr>                     <chr>      <dbl>
##  1 Full-Time Tenured Faculty 1975        29  
##  2 Full-Time Tenured Faculty 1989        27.6
##  3 Full-Time Tenured Faculty 1993        25  
##  4 Full-Time Tenured Faculty 1995        24.8
##  5 Full-Time Tenured Faculty 1999        21.8
##  6 Full-Time Tenured Faculty 2001        20.3
##  7 Full-Time Tenured Faculty 2003        19.3
##  8 Full-Time Tenured Faculty 2005        17.8
##  9 Full-Time Tenured Faculty 2007        17.2
## 10 Full-Time Tenured Faculty 2009        16.8
## # … with 45 more rows
```
…
---

## New variable: `decade_built`

```r
duke_forest <- duke_forest %>%
  mutate(decade_built = (year_built %/% 10) * 10)

duke_forest %>%
  select(year_built, decade_built)
```

```
## # A tibble: 98 × 2
##    year_built decade_built
##         <dbl>        <dbl>
##  1       1972         1970
##  2       1969         1960
##  3       1959         1950
##  4       1961         1960
##  5       2020         2020
##  6       2014         2010
##  7       1968         1960
##  8       1973         1970
##  9       1972         1970
## 10       1964         1960
## # … with 88 more rows
```
…
